<?xml version="1.0" encoding="UTF-8"?>
<svg width="48px" height="48px" viewBox="0 0 48 48" version="1.1" xmlns="http://www.w3.org/2000/svg" xmlns:xlink="http://www.w3.org/1999/xlink">
    <!-- Generator: Sketch 42 (36781) - http://www.bohemiancoding.com/sketch -->
    <title>ic_fm</title>
    <desc>Created with Sketch.</desc>
    <defs>
        <circle id="path-1" cx="24" cy="24" r="24"></circle>
    </defs>
    <g id="Symbols" stroke="none" stroke-width="1" fill="none" fill-rule="evenodd">
        <g id="ic_fm">
            <mask id="mask-2" fill="white">
                <use xlink:href="#path-1"></use>
            </mask>
            <use id="Oval-4" fill="#FFACCC" xlink:href="#path-1"></use>
            <g id="Page-1" mask="url(#mask-2)">
                <g transform="translate(9.000000, 5.000000)">
                    <path d="M8,29.4513654 C4.29076118,27.2412624 4,14.0854356 4,14.0854356 C4,14.0854356 3.38664909,2.25514052e-15 14.999721,0 C26.612793,0 26,14.0854356 26,14.0854356 C26,14.0854356 25.6466854,27.2785341 22,29.4513654 C15.1466854,33.534826 14.7907612,33.4975544 8,29.4513654 Z" id="Fill-10" fill="#4D6577"></path>
                    <path d="M30.0002679,49 L30.0002679,34.8258894 C29.659451,32.9493185 28.1722992,31.4694082 26.2664296,31.0934568 C25.9629403,31.0313293 18.422452,29 15,29 C11.5352461,29 4.03110367,31.0313293 3.72869631,31.0934568 C1.83797411,31.4630362 0.350822361,32.9392295 0.000267857143,34.8057113 L0.000267857143,49 L30.0002679,49 Z" id="Fill-1" fill="#FFFFFF"></path>
                    <path d="M9,29 L13.0021973,29 C14.0210849,29 15,29.1989746 15,31 C15,32.8010254 14.364065,34.0853661 14.364065,34.0853661 C14.1656267,34.5905045 13.5606216,34.9112567 13.0159811,34.8024322 L9,34 L9,29 Z" id="Fill-6-Copy" fill="#FFACCC" transform="translate(12.000000, 32.000000) scale(-1, 1) translate(-12.000000, -32.000000) "></path>
                    <path d="M15,29 L19.0021973,29 C20.0210849,29 21,29.1989746 21,31 C21,32.8010254 20.364065,34.0853661 20.364065,34.0853661 C20.1656267,34.5905045 19.5606216,34.9112567 19.0159811,34.8024322 L15,34 L15,29 Z" id="Fill-6-Copy-2" fill="#FFACCC"></path>
                    <path d="M19,30.4996584 C19,30.4996584 16.9996767,32 15,32 C13.0003233,32 11,30.4996584 11,30.4996584 L11,25 L19,25 L19,30.4996584 Z" id="Fill-8" fill="#FFCFBC"></path>
                    <path d="M14.9989321,28 L14.9989321,28 C10.0493593,28 6,23.9258049 6,18.9478442 L6,13.0526928 C6,8.07312107 10.0493593,4 14.9989321,4 C19.9501068,4 24,8.07312107 24,13.0526928 L24,18.9478442 C24,23.9258049 19.9501068,28 14.9989321,28" id="Fill-12" fill="#FFCFBC"></path>
                    <path d="M7.181375,4.0979554 C7.181375,4.0979554 10.8852375,14.6105262 25.181375,13.9551955 C25.181375,7.55564632 24.337421,-2.35615298 7.181375,4.0979554" id="Fill-14" fill="#4D6577"></path>
                    <path d="M5,4.0979554 C5,4.0979554 7.50656324,14.6105262 17.181375,13.9551955 C17.181375,7.55564632 16.610235,-2.35615298 5,4.0979554" id="Fill-14-Copy" fill="#4D6577" transform="translate(11.090688, 7.992304) scale(-1, 1) translate(-11.090688, -7.992304) "></path>
                </g>
            </g>
        </g>
    </g>
</svg>