<?xml version="1.0" encoding="utf-8"?>
<!-- Generator: Adobe Illustrator 20.0.0, SVG Export Plug-In . SVG Version: 6.00 Build 0)  -->
<svg version="1.1" id="Layer_1" xmlns="http://www.w3.org/2000/svg" xmlns:xlink="http://www.w3.org/1999/xlink" x="0px" y="0px"
	 viewBox="0 0 40 40" style="enable-background:new 0 0 40 40;" xml:space="preserve">
<style type="text/css">
	.st0{opacity:0.4;clip-path:url(#SVGID_2_);fill:#D3D3D3;enable-background:new    ;}
	.st1{fill:#82B841;}
</style>
<g>
	<g>
		<defs>
			<path id="SVGID_1_" d="M40,33c0,3.9-3.1,7-7,7H7c-3.9,0-7-3.1-7-7V7c0-3.9,3.1-7,7-7h25.9C36.9,0,40,3.1,40,7V33z"/>
		</defs>
		<clipPath id="SVGID_2_">
			<use xlink:href="#SVGID_1_"  style="overflow:visible;"/>
		</clipPath>
		<path class="st0" d="M33.9,10.7c-1.8,0-3.2,1.4-3.2,3.1c0,1.2,0.8,2.1,1.6,2.1c0.7,0,1.2-0.4,1.2-0.9c0-0.3-0.1-0.6-0.4-0.8
			c-0.1-0.1-0.1-0.2-0.1-0.4c0-0.2,0.2-0.5,0.5-0.5c0.6,0,1.3,0.8,1.3,1.7c0,1.2-1.1,2.2-2.5,2.2c-1.6,0-2.9-1.6-2.9-3.4
			c0-2.4,2.1-4.3,4.6-4.3c1.1,0,2.1,0.3,3,0.9c0.1,0.1,0.1,0.1,0.2,0c0.1-0.1,0.1-0.1,0-0.2c-1-1.2-2.5-2-4.2-2
			c-4.8,0-5.2,3.9-8.6,3.9c-1.2,0-2.3-1.1-2.3-2.3c0-0.9,0.6-1.6,1.3-1.6c0.3,0,0.5,0.2,0.5,0.5c0,0.1-0.1,0.2-0.1,0.4
			c-0.1,0.1-0.4,0.3-0.4,0.8c0,0.6,0.4,1,1,1c1,0,1.8-1.4,1.8-2.9c0-2.6-2.6-6.1-6.6-6.1c-1.8,0-3.5,0.6-4.9,1.9
			c-1.6,1.5-1.4,3.1-1.8,3.4c-0.1,0.1-0.2,0.1-0.3,0.1c-0.1,0-0.2-0.1-0.3-0.1c-0.4-0.4-0.6-0.6-0.9-0.9c-0.4-0.4-1.1-0.8-1.8-0.8
			c-1.4,0-2.6,1.1-2.6,2.5c0,0.4,0.1,0.6,0.1,0.9c0,0.7-1.5-0.1-3.6,2c-0.9,1.1-1.6,2.5-1.6,3.9c0,3.1,2.9,5.7,6.6,5.7
			c2.9,0,5.2-1.9,5.2-4.6c0-1.6-1.4-2.8-2.9-2.8c-1.2,0-2.2,0.9-2.2,2.2c0,0.8,0.5,1.3,1.2,1.3c0.4,0,0.8-0.3,0.8-0.7
			c0-0.1-0.1-0.2-0.1-0.3s-0.1-0.2-0.1-0.3c0-0.2,0.2-0.5,0.5-0.5c0.6,0,1.1,0.6,1.1,1.2c0,1.1-0.9,2-2.1,1.9
			c-1.4,0-2.4-1.2-2.4-2.6c0-1.9,1.6-3.4,3.6-3.4c5.7,0,4.2,8.6,13.4,8.6c2.2,0,3.7-1.3,4.4-1.3s1.6,1.4,4.1,1.4
			c3.2,0,5.5-2.2,5.5-5.2C38.1,12.7,36.2,10.7,33.9,10.7z"/>
	</g>
</g>
<path class="st1" d="M32.7,15.2c-0.4-1.8-1.3-3.4-2.6-4.6C28.7,9.5,27,8.9,25.2,9c-1.2,0.1-2.4,0.4-3.5,0.9
	c-0.6,0.3-1.2,0.7-1.8,1.2c-0.7-0.6-1.5-1.1-2.3-1.4c-1.5-0.6-3.1-0.8-4.4-0.4c-3,0.7-5.6,3.9-6,7.1c-0.3,2.7,1.2,5.2,2.6,6.7
	c1.3,1.6,2.7,3.1,4.1,4.6c0.7,0.8,1.4,1.5,2,2.2c0.6,0.6,1.5,0.7,2.1,0.1c0.6-0.6,0.7-1.5,0.1-2.1c-0.7-0.8-1.4-1.5-2-2.2
	c-1.1-1.2-2.3-2.6-3.4-3.8h1.7l0,0c0.2,0,0.5-0.1,0.6-0.4l0.1-0.3l0.9,1.9c0.1,0.2,0.4,0.4,0.7,0.4c0.3,0,0.5-0.2,0.6-0.5l0.9-3.1
	l1.4,4.8c0.1,0.3,0.4,0.5,0.6,0.5l0,0c0.3,0,0.6-0.2,0.7-0.5l0.9-2.9h2.9c0.4,0,0.7-0.3,0.7-0.7s-0.3-0.7-0.7-0.7l0,0h-3.5
	c-0.3,0-0.6,0.2-0.7,0.5L20.1,22l-1.4-4.9c-0.1-0.3-0.4-0.5-0.7-0.5l0,0c-0.3,0-0.6,0.2-0.7,0.5l-1.1,3.7l-0.7-1.6
	c-0.1-0.2-0.4-0.4-0.6-0.4s-0.5,0.1-0.6,0.4l-0.6,1.2h-2.4c-0.8-1-1.5-2.4-1.4-3.8c0.1-1,0.6-2.1,1.3-2.9c0.7-0.9,1.6-1.4,2.4-1.6
	c1.6-0.4,3.7,0.5,5,2.1c0.3,0.4,0.8,0.6,1.2,0.6s0.9-0.2,1.2-0.6c0.9-1.2,2.5-2.1,4.2-2.1c1-0.1,2,0.3,2.8,1
	c0.8,0.7,1.4,1.7,1.7,2.9c0.3,1.5-0.2,3.1-1.8,5.2c-1.4,1.9-3.2,3.7-4.9,5.4c-0.1,0.1-0.2,0.2-0.4,0.4c-0.1,0.1-0.3,0.3-0.4,0.4
	c-0.8,0.8-1.6,1.6-2.4,2.6c-0.7,0.8-1.2,1.9-1.4,2.4c-0.3,0.8,0,1.6,0.8,1.9c0.2,0.1,0.4,0.1,0.6,0.1c0.6,0,1.1-0.3,1.4-0.9
	c0.3-0.7,0.7-1.3,1-1.7c0.7-0.8,1.4-1.6,2.2-2.4c0.1-0.1,0.2-0.2,0.4-0.4c0.1-0.1,0.3-0.3,0.4-0.4c1.8-1.8,3.6-3.6,5.2-5.8
	C31.8,20.9,33.3,18.3,32.7,15.2z"/>
</svg>
