<?xml version="1.0" encoding="UTF-8"?>
<svg width="44px" height="44px" viewBox="0 0 44 44" version="1.1" xmlns="http://www.w3.org/2000/svg" xmlns:xlink="http://www.w3.org/1999/xlink">
    <!-- Generator: Sketch 42 (36781) - http://www.bohemiancoding.com/sketch -->
    <title>ic_CO2</title>
    <desc>Created with Sketch.</desc>
    <defs></defs>
    <g id="Symbols" stroke="none" stroke-width="1" fill="none" fill-rule="evenodd" opacity="0.2">
        <g id="ic_CO2" fill="#D5D5D5">
            <g id="Group-2" transform="translate(0.000000, 2.000000)">
                <polygon id="Fill-6" points="22 22.43775 9.77777778 32.19525 9.77777778 25 4.88888889 25 4.88888889 36.09775 0 40.00025 5.302 40.00025 22 27.12275 38.698 40.00025 44 40.00025"></polygon>
                <polygon id="Fill-7" points="9.36197778 40 34.6399778 40 21.9997556 30.2525"></polygon>
                <path d="M19.2849583,21.6715469 C25.6155412,19.9008278 19.2765772,15.027413 23.925337,15.9746464 C27.7443603,16.7531328 45.0095862,17.7341157 43.9535578,7.17280022 C42.8975295,-3.38851521 20.9081131,-0.839309763 22.8804835,5.54832861 C24.1348665,9.60950764 22.4306937,9.49250968 18.972061,8.78602203 C15.527397,8.08178434 12.663828,10.0527499 11.674849,14.4851724 C10.1885869,21.1428061 4.88888889,20.4430683 4.88888889,20.4430683 C4.88888889,20.4430683 10.6411705,24.0902546 19.2849583,21.6715469" id="Fill-1"></path>
            </g>
        </g>
    </g>
</svg>