<?xml version="1.0" encoding="UTF-8"?>
<svg width="44px" height="44px" viewBox="0 0 44 44" version="1.1" xmlns="http://www.w3.org/2000/svg" xmlns:xlink="http://www.w3.org/1999/xlink">
    <!-- Generator: Sketch 42 (36781) - http://www.bohemiancoding.com/sketch -->
    <title>ic_PM2.5</title>
    <desc>Created with Sketch.</desc>
    <defs></defs>
    <g id="Symbols" stroke="none" stroke-width="1" fill="none" fill-rule="evenodd" opacity="0.2">
        <g id="ic_PM2.5" fill="#D4D4D4">
            <path d="M35.5153378,16.8416133 C40.4570781,18.2766142 44,22.1038601 44,26.6139865 C44,32.3496625 38.2799759,37 31.2231063,37 L15.612358,37 C6.9900675,37 0,31.3188506 0,24.3100225 C0,18.3545093 5.05280872,13.3718193 11.8593719,12.0043275 C14.1008615,9.00796261 18.1427866,7 22.7722475,7 C29.6021511,7 35.1644259,11.3603947 35.5153378,16.8416133 Z M13.4444444,24.49975 C14.1194591,24.49975 14.6666667,23.9401059 14.6666667,23.24975 C14.6666667,22.5593941 14.1194591,21.99975 13.4444444,21.99975 C12.7694298,21.99975 12.2222222,22.5593941 12.2222222,23.24975 C12.2222222,23.9401059 12.7694298,24.49975 13.4444444,24.49975 Z M18.3333333,21.99975 C19.008348,21.99975 19.5555556,21.4401059 19.5555556,20.74975 C19.5555556,20.0593941 19.008348,19.49975 18.3333333,19.49975 C17.6583186,19.49975 17.1111111,20.0593941 17.1111111,20.74975 C17.1111111,21.4401059 17.6583186,21.99975 18.3333333,21.99975 Z M25.6666667,26.99975 C26.3416814,26.99975 26.8888889,26.4401059 26.8888889,25.74975 C26.8888889,25.0593941 26.3416814,24.49975 25.6666667,24.49975 C24.991652,24.49975 24.4444444,25.0593941 24.4444444,25.74975 C24.4444444,26.4401059 24.991652,26.99975 25.6666667,26.99975 Z M28.1111111,16.99975 C28.7861258,16.99975 29.3333333,16.4401059 29.3333333,15.74975 C29.3333333,15.0593941 28.7861258,14.49975 28.1111111,14.49975 C27.4360964,14.49975 26.8888889,15.0593941 26.8888889,15.74975 C26.8888889,16.4401059 27.4360964,16.99975 28.1111111,16.99975 Z M13.4444444,31.99975 C14.1194591,31.99975 14.6666667,31.4401059 14.6666667,30.74975 C14.6666667,30.0593941 14.1194591,29.49975 13.4444444,29.49975 C12.7694298,29.49975 12.2222222,30.0593941 12.2222222,30.74975 C12.2222222,31.4401059 12.7694298,31.99975 13.4444444,31.99975 Z M30.5555556,34.49975 C31.2305702,34.49975 31.7777778,33.9401059 31.7777778,33.24975 C31.7777778,32.5593941 31.2305702,31.99975 30.5555556,31.99975 C29.8805409,31.99975 29.3333333,32.5593941 29.3333333,33.24975 C29.3333333,33.9401059 29.8805409,34.49975 30.5555556,34.49975 Z M37.8888889,29.49975 C38.5639036,29.49975 39.1111111,28.9401059 39.1111111,28.24975 C39.1111111,27.5593941 38.5639036,26.99975 37.8888889,26.99975 C37.2138742,26.99975 36.6666667,27.5593941 36.6666667,28.24975 C36.6666667,28.9401059 37.2138742,29.49975 37.8888889,29.49975 Z M6.11111111,24.49975 C6.78612581,24.49975 7.33333333,23.9401059 7.33333333,23.24975 C7.33333333,22.5593941 6.78612581,21.99975 6.11111111,21.99975 C5.43609642,21.99975 4.88888889,22.5593941 4.88888889,23.24975 C4.88888889,23.9401059 5.43609642,24.49975 6.11111111,24.49975 Z M20.7777778,26.99975 C21.4527925,26.99975 22,26.4401059 22,25.74975 C22,25.0593941 21.4527925,24.49975 20.7777778,24.49975 C20.1027631,24.49975 19.5555556,25.0593941 19.5555556,25.74975 C19.5555556,26.4401059 20.1027631,26.99975 20.7777778,26.99975 Z M18.3333333,16.99975 C19.008348,16.99975 19.5555556,16.4401059 19.5555556,15.74975 C19.5555556,15.0593941 19.008348,14.49975 18.3333333,14.49975 C17.6583186,14.49975 17.1111111,15.0593941 17.1111111,15.74975 C17.1111111,16.4401059 17.6583186,16.99975 18.3333333,16.99975 Z M20.7777778,31.99975 C21.4527925,31.99975 22,31.4401059 22,30.74975 C22,30.0593941 21.4527925,29.49975 20.7777778,29.49975 C20.1027631,29.49975 19.5555556,30.0593941 19.5555556,30.74975 C19.5555556,31.4401059 20.1027631,31.99975 20.7777778,31.99975 Z M33,24.49975 C33.6750147,24.49975 34.2222222,23.9401059 34.2222222,23.24975 C34.2222222,22.5593941 33.6750147,21.99975 33,21.99975 C32.3249853,21.99975 31.7777778,22.5593941 31.7777778,23.24975 C31.7777778,23.9401059 32.3249853,24.49975 33,24.49975 Z M11,19.49975 C11.6750147,19.49975 12.2222222,18.9401059 12.2222222,18.24975 C12.2222222,17.5593941 11.6750147,16.99975 11,16.99975 C10.3249853,16.99975 9.77777778,17.5593941 9.77777778,18.24975 C9.77777778,18.9401059 10.3249853,19.49975 11,19.49975 Z" id="Combined-Shape"></path>
        </g>
    </g>
</svg>